<?xml version="1.0" encoding="UTF-8"?>
<session version="1.0">
<refactoring comment="Delete resource &apos;timer/src/platform&apos;" deleteContents="false" description="Delete resource &apos;timer/src/platform&apos;" element1="/timer/src/platform" flags="7" id="org.eclipse.ltk.core.refactoring.delete.resources" resources="1" stamp="1574105438064"/>
</session>